Texts:

"02
06
VCP Test
PO NO TPMHOI-152
PO Qty.
67
کہ
08
Sr. No. Collector Name
4
400
Aditi
Alpha
то рро
Kavona
check
Shirom
Saivostava
Test
Dilip
Sanand Test
Aditi
Shinde
Kanina
chek
Такалі
Dasabcde
citendrella
Jaynesh
Panchal
State
Test
District
Block 3613 Tatht pus
Collector Father's/
Husband's Name.
Vaishai
Modak Check
Heena
Kotia
22 Chhattisgarn
375 Bilaspuse
आदि ती
B
Abline Poiti
Minz
Navjeet
Naddu
A b c d e
Udoynaj
Prabhu
Govind
Pandey 1 234
SNINIVOs a
Mall apdi
|| | Jayadev
1
Panda UP
Collector's
Mobile No.
98811
66 186
12345
08723
45789
12347
771 25
43205
q R 3 X Y F
६७८९११
88991
41578
76452
339
54312
whanat check 88 glo
0
G
77332
28120
F
F
Village Name
F
Banta
L
Village
Banan
Bel
Total Qty. (Per page) 75
Qty, of
beans
supplied
a
Buten
Amane
Bahun
Ja
Deoni
Qaubu
15 agi D
ua
438608
Amali kapa
Date of supply
Beans
cost/kg
Amount paid
26 02 01 20 1 2 350 ol
2504 415 2 #302
1805 504 45
310300197
0105 100 81
No. of
members
1906 7 10 5 1 25707
140 4 7 21 44
07525
50
2205 570 ZZ ZSO
243008
15011
120
1803 998 6 5 4 1 0
ars
U
L
20"
bounds: (53,36),(1556,36),(1556,952),(53,952)

"02"
bounds: (94,298),(136,298),(136,311),(94,311)

"06"
bounds: (69,642),(105,642),(105,655),(69,655)

"VCP"
bounds: (111,37),(138,37),(138,54),(111,54)

"Test"
bounds: (157,37),(243,38),(243,56),(157,55)

"PO"
bounds: (110,64),(129,64),(129,82),(110,82)

"NO"
bounds: (130,64),(147,64),(147,82),(130,82)

"TPMHOI"
bounds: (157,64),(288,65),(288,83),(157,82)

"-"
bounds: (298,65),(313,65),(313,83),(298,83)

"152"
bounds: (327,66),(390,67),(390,85),(327,84)

"PO"
bounds: (108,94),(124,94),(124,104),(108,104)

"Qty"
bounds: (128,94),(149,94),(149,104),(128,104)

"."
bounds: (144,94),(150,94),(150,104),(144,104)

"67"
bounds: (57,730),(100,731),(100,746),(57,746)

"کہ"
bounds: (77,549),(112,548),(113,569),(78,570)

"08"
bounds: (53,819),(94,818),(94,838),(53,839)

"Sr."
bounds: (107,148),(123,148),(123,157),(107,157)

"No."
bounds: (125,148),(146,148),(146,157),(125,157)

"Collector"
bounds: (164,146),(210,145),(210,155),(164,156)

"Name"
bounds: (214,145),(246,144),(246,154),(214,155)

"4"
bounds: (109,466),(121,466),(121,478),(109,478)

"400"
bounds: (179,93),(246,93),(246,111),(179,111)

"Aditi"
bounds: (278,36),(388,39),(388,55),(278,52)

"Alpha"
bounds: (165,193),(285,197),(284,221),(164,217)

"то"
bounds: (161,224),(200,226),(199,255),(160,253)

"рро"
bounds: (218,225),(273,227),(272,257),(217,255)

"Kavona"
bounds: (163,275),(303,274),(303,295),(163,296)

"check"
bounds: (150,306),(262,306),(262,335),(150,335)

"Shirom"
bounds: (151,358),(299,359),(299,382),(151,381)

"Saivostava"
bounds: (148,393),(401,392),(401,413),(148,414)

"Test"
bounds: (330,229),(434,229),(434,251),(330,251)

"Dilip"
bounds: (145,443),(263,445),(263,467),(145,465)

"Sanand"
bounds: (141,474),(290,475),(290,502),(141,501)

"Test"
bounds: (319,476),(419,477),(419,503),(319,502)

"Aditi"
bounds: (130,618),(243,618),(243,640),(130,640)

"Shinde"
bounds: (126,653),(278,652),(278,673),(126,674)

"Kanina"
bounds: (124,707),(275,709),(275,731),(124,729)

"chek"
bounds: (326,309),(430,310),(430,331),(326,330)

"Такалі"
bounds: (136,524),(278,520),(279,552),(137,556)

"Dasabcde"
bounds: (133,566),(335,563),(335,584),(133,587)

"citendrella"
bounds: (125,742),(399,740),(399,761),(125,763)

"Jaynesh"
bounds: (107,889),(290,888),(290,920),(107,921)

"Panchal"
bounds: (106,925),(284,920),(285,947),(107,952)

"State"
bounds: (535,44),(563,44),(563,53),(535,53)

"Test"
bounds: (293,832),(395,831),(395,856),(293,857)

"District"
bounds: (534,70),(572,71),(572,81),(534,80)

"Block"
bounds: (531,98),(567,98),(567,122),(531,122)

"3613"
bounds: (576,97),(668,98),(668,123),(576,122)

"Tatht"
bounds: (688,99),(805,100),(805,124),(688,123)

"pus"
bounds: (811,100),(880,101),(880,126),(811,125)

"Collector"
bounds: (474,144),(523,144),(523,154),(474,154)

"Father's"
bounds: (526,144),(569,144),(569,154),(526,154)

"/"
bounds: (570,144),(574,144),(574,154),(570,154)

"Husband's"
bounds: (474,156),(530,156),(530,166),(474,166)

"Name"
bounds: (535,156),(566,156),(566,166),(535,166)

"."
bounds: (564,156),(569,156),(569,166),(564,166)

"Vaishai"
bounds: (472,197),(640,196),(640,218),(472,219)

"Modak"
bounds: (471,230),(593,230),(593,250),(471,250)

"Check"
bounds: (616,230),(738,230),(738,250),(616,250)

"Heena"
bounds: (471,277),(593,277),(593,298),(471,298)

"Kotia"
bounds: (470,310),(585,311),(585,331),(470,330)

"22"
bounds: (624,40),(666,40),(666,62),(624,62)

"Chhattisgarn"
bounds: (690,40),(970,42),(970,64),(690,62)

"375"
bounds: (603,69),(668,70),(668,89),(603,88)

"Bilaspuse"
bounds: (693,69),(879,71),(879,91),(693,89)

"आदि"
bounds: (466,356),(509,353),(511,384),(468,387)

"ती"
bounds: (529,352),(538,351),(540,381),(531,382)

"B"
bounds: (463,396),(481,396),(481,410),(463,410)

"Abline"
bounds: (117,797),(269,795),(269,824),(117,826)

"Poiti"
bounds: (441,792),(570,790),(570,819),(441,821)

"Minz"
bounds: (115,833),(216,833),(216,855),(115,855)

"Navjeet"
bounds: (462,441),(635,444),(635,469),(462,466)

"Naddu"
bounds: (463,475),(573,475),(573,497),(463,497)

"A"
bounds: (621,312),(638,312),(638,332),(621,332)

"b"
bounds: (647,312),(661,312),(661,332),(647,332)

"c"
bounds: (670,312),(684,312),(684,332),(670,332)

"d"
bounds: (693,312),(708,312),(708,332),(693,332)

"e"
bounds: (720,312),(735,312),(735,332),(720,332)

"Udoynaj"
bounds: (458,526),(630,526),(630,561),(458,561)

"Prabhu"
bounds: (457,561),(608,561),(608,584),(457,584)

"Govind"
bounds: (461,610),(595,609),(595,641),(461,642)

"Pandey"
bounds: (451,649),(592,645),(593,683),(452,687)

"1"
bounds: (629,644),(641,644),(642,681),(630,681)

"234"
bounds: (657,643),(718,641),(719,679),(658,681)

"SNINIVOs"
bounds: (449,703),(643,701),(643,725),(449,727)

"a"
bounds: (654,702),(676,702),(676,725),(654,725)

"Mall"
bounds: (452,731),(538,735),(537,768),(451,764)

"apdi"
bounds: (552,735),(644,739),(643,772),(551,768)

"||"
bounds: (341,881),(380,881),(380,918),(341,918)

"|"
bounds: (385,881),(413,881),(413,918),(385,918)

"Jayadev"
bounds: (437,881),(618,883),(618,921),(437,919)

"1"
bounds: (721,703),(738,703),(738,721),(721,721)

"Panda"
bounds: (434,922),(567,919),(568,946),(435,949)

"UP"
bounds: (597,918),(648,917),(649,944),(598,945)

"Collector's"
bounds: (781,143),(836,144),(836,154),(781,153)

"Mobile"
bounds: (781,154),(815,155),(815,166),(781,165)

"No."
bounds: (819,155),(839,155),(839,166),(819,166)

"98811"
bounds: (777,199),(889,196),(890,218),(778,221)

"66"
bounds: (776,229),(811,230),(811,249),(776,248)

"186"
bounds: (835,229),(891,230),(891,250),(835,249)

"12345"
bounds: (775,279),(892,279),(892,298),(775,298)

"08723"
bounds: (773,308),(892,309),(892,329),(773,328)

"45789"
bounds: (776,359),(894,359),(894,380),(776,380)

"12347"
bounds: (777,390),(891,392),(891,412),(777,410)

"771"
bounds: (771,527),(836,527),(836,549),(771,549)

"25"
bounds: (850,527),(890,527),(890,548),(850,548)

"43205"
bounds: (776,562),(889,563),(889,580),(776,579)

"q"
bounds: (775,436),(792,438),(789,465),(772,463)

"R"
bounds: (793,437),(816,439),(813,466),(790,464)

"3"
bounds: (825,440),(844,442),(841,469),(822,467)

"X"
bounds: (847,443),(867,445),(864,472),(844,470)

"Y"
bounds: (874,445),(898,447),(895,474),(871,472)

"F"
bounds: (913,449),(934,451),(931,478),(910,476)

"६७८"
bounds: (780,470),(842,470),(842,504),(780,504)

"९"
bounds: (855,470),(872,470),(872,504),(855,504)

"११"
bounds: (878,470),(900,470),(900,504),(878,504)

"88991"
bounds: (774,612),(896,614),(896,639),(774,637)

"41578"
bounds: (768,649),(891,646),(892,671),(769,674)

"76452"
bounds: (774,702),(894,701),(894,725),(774,726)

"339"
bounds: (768,738),(836,735),(837,759),(769,762)

"54312"
bounds: (769,791),(894,790),(894,814),(769,815)

"whanat"
bounds: (442,828),(592,826),(592,859),(442,861)

"check"
bounds: (622,826),(751,824),(751,857),(622,859)

"88"
bounds: (768,824),(808,824),(808,857),(768,857)

"glo"
bounds: (819,824),(896,823),(896,855),(819,856)

"0"
bounds: (871,738),(892,738),(892,755),(871,755)

"G"
bounds: (914,150),(925,150),(925,159),(914,159)

"77332"
bounds: (765,886),(895,881),(896,906),(766,911)

"28120"
bounds: (765,918),(892,917),(892,942),(765,943)

"F"
bounds: (909,292),(934,292),(934,315),(909,315)

"F"
bounds: (913,632),(936,632),(936,654),(913,654)

"Village"
bounds: (944,149),(978,148),(978,161),(944,162)

"Name"
bounds: (982,148),(1014,147),(1014,160),(982,161)

"F"
bounds: (910,900),(932,900),(932,926),(910,926)

"Banta"
bounds: (945,194),(1060,198),(1059,220),(944,216)

"L"
bounds: (952,316),(964,316),(964,327),(952,327)

"Village"
bounds: (1060,41),(1096,44),(1095,56),(1059,53)

"Banan"
bounds: (948,276),(1063,278),(1063,297),(948,295)

"Bel"
bounds: (945,357),(1015,357),(1015,378),(945,378)

"Total"
bounds: (1060,105),(1087,105),(1087,126),(1060,126)

"Qty"
bounds: (1090,105),(1111,105),(1111,126),(1090,126)

"."
bounds: (1108,105),(1113,105),(1113,126),(1108,126)

"("
bounds: (1114,105),(1121,105),(1121,126),(1114,126)

"Per"
bounds: (1119,105),(1136,105),(1136,126),(1119,126)

"page"
bounds: (1137,105),(1162,105),(1162,126),(1137,126)

")"
bounds: (1159,105),(1165,105),(1165,126),(1159,126)

"75"
bounds: (1216,105),(1258,105),(1258,126),(1216,126)

"Qty"
bounds: (1189,137),(1208,137),(1208,148),(1189,148)

","
bounds: (1206,137),(1212,137),(1212,148),(1206,148)

"of"
bounds: (1213,137),(1226,137),(1226,148),(1213,148)

"beans"
bounds: (1189,150),(1222,150),(1222,158),(1189,158)

"supplied"
bounds: (1190,160),(1235,160),(1235,171),(1190,171)

"a"
bounds: (952,477),(972,477),(972,490),(952,490)

"Buten"
bounds: (946,441),(1066,440),(1066,462),(946,463)

"Amane"
bounds: (946,523),(1068,525),(1068,548),(946,546)

"Bahun"
bounds: (947,613),(1070,613),(1070,637),(947,637)

"Ja"
bounds: (944,649),(993,648),(994,668),(945,670)

"Deoni"
bounds: (949,701),(1065,701),(1065,721),(949,721)

"Qaubu"
bounds: (949,790),(1067,791),(1067,812),(949,811)

"15"
bounds: (933,875),(963,876),(962,918),(932,917)

"agi"
bounds: (978,875),(1043,876),(1042,918),(977,917)

"D"
bounds: (1061,877),(1073,877),(1072,919),(1060,919)

"ua"
bounds: (952,918),(1003,917),(1004,938),(953,939)

"438608"
bounds: (1121,41),(1254,38),(1254,56),(1121,59)

"Amali"
bounds: (1119,70),(1231,70),(1231,92),(1119,92)

"kapa"
bounds: (1265,70),(1356,70),(1356,92),(1265,92)

"Date"
bounds: (1076,149),(1101,150),(1101,160),(1076,159)

"of"
bounds: (1104,149),(1116,149),(1116,159),(1104,159)

"supply"
bounds: (1118,149),(1153,150),(1153,161),(1118,160)

"Beans"
bounds: (1267,143),(1301,143),(1301,152),(1267,152)

"cost"
bounds: (1267,153),(1288,153),(1288,167),(1267,167)

"/"
bounds: (1291,153),(1295,153),(1295,166),(1291,166)

"kg"
bounds: (1295,153),(1307,153),(1307,166),(1295,166)

"Amount"
bounds: (1327,149),(1370,149),(1370,158),(1327,158)

"paid"
bounds: (1372,149),(1394,149),(1394,158),(1372,158)

"26"
bounds: (1078,210),(1117,210),(1117,233),(1078,233)

"02"
bounds: (1140,210),(1174,210),(1174,233),(1140,233)

"01"
bounds: (1187,210),(1229,210),(1229,233),(1187,233)

"20"
bounds: (1271,210),(1314,210),(1314,233),(1271,233)

"1"
bounds: (1329,210),(1342,210),(1342,233),(1329,233)

"2"
bounds: (1353,210),(1371,210),(1371,233),(1353,233)

"350"
bounds: (1379,210),(1449,210),(1449,233),(1379,233)

"ol"
bounds: (1464,210),(1510,210),(1510,233),(1464,233)

"2504"
bounds: (1077,280),(1172,280),(1172,317),(1077,317)

"415"
bounds: (1188,280),(1258,280),(1258,316),(1188,316)

"2"
bounds: (1272,280),(1294,280),(1294,316),(1272,316)

"#"
bounds: (1329,279),(1350,279),(1350,315),(1329,315)

"302"
bounds: (1353,279),(1426,279),(1426,315),(1353,315)

"1805"
bounds: (1080,372),(1173,373),(1173,400),(1080,399)

"504"
bounds: (1189,372),(1261,372),(1261,399),(1189,399)

"45"
bounds: (1277,373),(1321,373),(1321,400),(1277,400)

"310300197"
bounds: (1082,539),(1330,540),(1330,568),(1082,567)

"0105"
bounds: (1091,627),(1183,627),(1183,656),(1091,656)

"100"
bounds: (1202,627),(1268,627),(1268,656),(1202,656)

"81"
bounds: (1288,628),(1336,628),(1336,657),(1288,657)

"No."
bounds: (1457,142),(1477,142),(1477,151),(1457,151)

"of"
bounds: (1479,142),(1490,142),(1490,151),(1479,151)

"members"
bounds: (1458,152),(1508,154),(1508,164),(1458,162)

"1906"
bounds: (1082,456),(1174,455),(1174,482),(1082,483)

"7"
bounds: (1192,456),(1210,456),(1210,482),(1192,482)

"10"
bounds: (1222,455),(1262,455),(1262,481),(1222,481)

"5"
bounds: (1280,455),(1299,455),(1299,481),(1280,481)

"1"
bounds: (1371,454),(1386,454),(1386,480),(1371,480)

"25707"
bounds: (1391,454),(1530,453),(1530,480),(1391,481)

"140"
bounds: (1090,805),(1159,805),(1159,834),(1090,834)

"4"
bounds: (1170,805),(1188,805),(1188,833),(1170,833)

"7"
bounds: (1204,805),(1224,805),(1224,833),(1204,833)

"21"
bounds: (1231,805),(1279,805),(1279,833),(1231,833)

"44"
bounds: (1299,804),(1346,804),(1346,832),(1299,832)

"07525"
bounds: (1388,372),(1516,370),(1516,394),(1388,396)

"50"
bounds: (1468,294),(1514,294),(1514,310),(1468,310)

"2205"
bounds: (1090,715),(1190,715),(1190,743),(1090,743)

"570"
bounds: (1203,715),(1278,715),(1278,743),(1203,743)

"ZZ"
bounds: (1291,715),(1340,715),(1340,743),(1291,743)

"ZSO"
bounds: (1352,716),(1431,716),(1431,744),(1352,744)

"243008"
bounds: (1371,540),(1527,539),(1527,561),(1371,562)

"15011"
bounds: (1402,626),(1533,626),(1533,648),(1402,648)

"120"
bounds: (1411,805),(1483,804),(1483,826),(1411,827)

"1803"
bounds: (1095,896),(1194,896),(1194,926),(1095,926)

"998"
bounds: (1208,896),(1282,896),(1282,926),(1208,926)

"6"
bounds: (1300,896),(1319,896),(1319,926),(1300,926)

"5"
bounds: (1325,897),(1347,897),(1347,927),(1325,927)

"4"
bounds: (1392,897),(1411,897),(1411,927),(1392,927)

"1"
bounds: (1419,897),(1433,897),(1433,927),(1419,927)

"0"
bounds: (1446,897),(1465,897),(1465,927),(1446,927)

"ars"
bounds: (1535,185),(1553,185),(1553,192),(1535,192)

"U"
bounds: (1542,265),(1541,243),(1552,243),(1553,265)

"L"
bounds: (1546,345),(1545,324),(1553,324),(1554,345)

"20"
bounds: (1510,898),(1556,897),(1556,918),(1510,919)
